<svg xmlns="http://www.w3.org/2000/svg" width="15.49" height="16.529" viewBox="0 0 15.49 16.529">
  <g id="Group_415" data-name="Group 415" transform="translate(-15.136 0)">
    <path id="Path_1382" data-name="Path 1382" d="M30.18,13.92,24.853,8.593a1.491,1.491,0,0,0-.158-.136l.943-.993a1.905,1.905,0,0,0,.136-.152,3.511,3.511,0,0,0,4.744-3.587A.3.3,0,0,0,30,3.536L28.294,5.243l-1.728-.436-.49-1.783,1.707-1.707A.3.3,0,0,0,27.594.8a3.511,3.511,0,0,0-3.587,4.742c-.051.043-.1.09-.153.139L22.466,7.016l-2.55-2.55a.938.938,0,0,0-.1-.086c.03-.052.059-.107.086-.163.539.1,1.523-.945,2.359-1.781L19.825,0c-1.089,1.089-1.885,1.821-1.781,2.359a2.379,2.379,0,0,0-.629.428l-.343.343a1.448,1.448,0,0,0-.405.79c-.033.038-.067.078-.1.121l-.128.161-.018.024-.116.162c-.073.1-.136.2-.2.3l-.069.113-.011.019-.052.1c-.062.117-.127.238-.182.371l-.009.021a4.029,4.029,0,0,0-.18.485l-.023.074c-.019.06-.038.121-.055.193l-.047.234a2.686,2.686,0,0,0-.058.419l-.007.084a2.087,2.087,0,0,0-.008.369c0,.037,0,.073,0,.122,0,.02,0,.04,0,.06a1.189,1.189,0,0,0,.012.164l.03.19c.006.037.012.072.017.107a1.608,1.608,0,0,0,.046.233l.125.432a.291.291,0,0,0,.568-.04L16.275,8a1.2,1.2,0,0,1,.035-.14c.011-.038.022-.076.03-.108l.046-.164a.457.457,0,0,1,.026-.066c.009-.021.018-.042.026-.063s.03-.07.044-.106a1.215,1.215,0,0,1,.1-.2c.018-.03.034-.06.051-.09a1.494,1.494,0,0,1,.131-.208l.009-.012.108-.149c.022-.028.047-.055.071-.081l.056-.063a2.161,2.161,0,0,1,.212-.21l.039-.035c.054-.05.116-.1.181-.146l.079-.059.1-.064a1.7,1.7,0,0,1,.169-.105l.128-.073.13-.064c.045-.023.09-.041.131-.058l.071-.03.066-.024a.858.858,0,0,1,.085-.028l.035-.008a.953.953,0,0,0,.137.174L21.087,8.34,15.7,13.512l-.006.006a1.6,1.6,0,0,0-.109,2.322,1.53,1.53,0,0,0,2.259-.172l.008-.009,4.75-5c.028.033.055.066.086.1l5.326,5.327A1.529,1.529,0,0,0,30.18,13.92Zm-13.028,1.2a.632.632,0,1,1,0-.894A.632.632,0,0,1,17.151,15.116Z" transform="translate(0)" fill="#fff"/>
  </g>
</svg>
