<svg xmlns="http://www.w3.org/2000/svg" width="20.672" height="21.426" viewBox="0 0 20.672 21.426">
  <path id="Path_1457" data-name="Path 1457" d="M26.8,11.249a1.668,1.668,0,0,1-.642-.36,1.563,1.563,0,0,1-.077-.143c-.2-.39-.658-1.3-1.59-1.3a1.635,1.635,0,0,0-.457.069,2.91,2.91,0,0,0-1.6,1.261c-.177.244-.316.437-.473.467a.738.738,0,0,1-.138.014c-.15,0-.234-.057-.25-.169a9.918,9.918,0,0,1-.031-1.507,7.787,7.787,0,0,0-.256-2.789,9.565,9.565,0,0,0-2.513-3.281c-.224-.216-.436-.421-.617-.609-.07-.086-.142-.164-.212-.24a2.456,2.456,0,0,1-.268-.323,7.528,7.528,0,0,1-.694-1.5Q16.956.749,16.93.665a.778.778,0,0,0-.092-.209c-.1-.238-.216-.456-.4-.456a.242.242,0,0,0-.086.016c-.31.117-.378.761-.439,1.329a3.227,3.227,0,0,1-.117.7,1.065,1.065,0,0,1-.308.388,1.027,1.027,0,0,0-.359.515.675.675,0,0,0,.067.537.632.632,0,0,1,.08.416.744.744,0,0,1-.224.412.744.744,0,0,0-.235.467.714.714,0,0,0,.221.53.65.65,0,0,1,.2.42c0,.146-.088.218-.2.31a.6.6,0,0,0-.263.63.742.742,0,0,0,.334.472c.133.105.215.176.209.3a1.342,1.342,0,0,1-.062.292.892.892,0,0,0,.057.833,4.12,4.12,0,0,0,.6.558,12.264,12.264,0,0,0-3.082-.977A23.04,23.04,0,0,1,8,6.682a3.93,3.93,0,0,0-.776-.275.076.076,0,0,0-.078.048c-.02.056.028.108.144.2l.312.259c.419.347.747.62.887.757q-.1-.036-.293-.119a.113.113,0,0,0-.15.026.138.138,0,0,0-.021.08,13.633,13.633,0,0,0,2.534,3.94c1.061,1.265,3.1,3.388,4.831,3.388a2.019,2.019,0,0,0,.3-.023,20.642,20.642,0,0,1-5.41,3.51C7.6,19.591,6.392,20.163,6.308,20.609a.3.3,0,0,0,.1.282.494.494,0,0,0,.346.167.71.71,0,0,0,.234-.053.728.728,0,0,1,.243-.054.589.589,0,0,1,.315.106,1.941,1.941,0,0,0,1.069.368A2.821,2.821,0,0,0,10.2,20.8a.544.544,0,0,1,.329-.114,1.178,1.178,0,0,1,.2.022,1.368,1.368,0,0,0,.234.025h0a.928.928,0,0,0,.574-.225,9.246,9.246,0,0,1,4.789-1.567,11.785,11.785,0,0,0,6.323-2.257,6.243,6.243,0,0,0,2.526-3.55c.026-.088.051-.17.076-.247.249-.771.395-.952.577-1.014.121-.042.42-.162.684-.269.186-.075.346-.14.391-.155.066-.023.073-.063.072-.085S26.971,11.287,26.8,11.249Z" transform="translate(-6.303)" fill="#fff"/>
</svg>
