<svg xmlns="http://www.w3.org/2000/svg" width="33.693" height="28.355" viewBox="0 0 33.693 28.355">
  <path id="Path_1366" data-name="Path 1366" d="M20.333,11.215a6.122,6.122,0,0,1,2.849,4.548,4.939,4.939,0,1,0-2.849-4.548ZM17.1,21.333a4.941,4.941,0,1,0-4.942-4.941A4.942,4.942,0,0,0,17.1,21.333Zm2.1.337H15A6.335,6.335,0,0,0,8.671,28v5.128l.013.08.353.111a28.8,28.8,0,0,0,8.6,1.387,17.661,17.661,0,0,0,7.512-1.41l.33-.167h.035V28A6.333,6.333,0,0,0,19.191,21.669Zm8.176-5.1H23.206a6.09,6.09,0,0,1-1.88,4.242A7.518,7.518,0,0,1,26.7,28v1.58a17.027,17.027,0,0,0,6.632-1.393l.33-.167h.035v-5.13A6.334,6.334,0,0,0,27.367,16.568ZM8.424,16.232a4.909,4.909,0,0,0,2.628-.763,6.116,6.116,0,0,1,2.3-3.9c.005-.093.014-.184.014-.278a4.941,4.941,0,1,0-4.941,4.941Zm4.438,4.578a6.094,6.094,0,0,1-1.878-4.218c-.154-.011-.307-.024-.464-.024H6.327A6.334,6.334,0,0,0,0,22.895v5.129l.013.079.353.111a29.665,29.665,0,0,0,7.125,1.339V28A7.52,7.52,0,0,1,12.862,20.81Z" transform="translate(0 -6.347)" fill="#3b5163"/>
</svg>
