<svg xmlns="http://www.w3.org/2000/svg" width="30.667" height="35.069" viewBox="0 0 30.667 35.069">
  <g id="Group_605" data-name="Group 605" transform="translate(-32.001)">
    <path id="Path_1374" data-name="Path 1374" d="M371.153,68.221l2.2-2.2a1.027,1.027,0,0,0-1.453-1.453l-2.2,2.2a1.027,1.027,0,1,0,1.453,1.453Z" transform="translate(-314.288 -59.864)" fill="#48a2ea"/>
    <path id="Path_1375" data-name="Path 1375" d="M420.83,208.867h-2.2a1.027,1.027,0,1,0,0,2.055h2.2a1.027,1.027,0,1,0,0-2.055Z" transform="translate(-359.189 -194.561)" fill="#48a2ea"/>
    <path id="Path_1376" data-name="Path 1376" d="M242.923,1.027a1.027,1.027,0,1,0-2.055,0v2.2a1.027,1.027,0,1,0,2.055,0Z" transform="translate(-194.561)" fill="#48a2ea"/>
    <path id="Path_1377" data-name="Path 1377" d="M82.7,68.221a1.028,1.028,0,1,0,1.453-1.453l-2.2-2.2A1.027,1.027,0,0,0,80.5,66.02Z" transform="translate(-44.9 -59.864)" fill="#48a2ea"/>
    <path id="Path_1378" data-name="Path 1378" d="M36.257,209.894a1.027,1.027,0,0,0-1.027-1.027h-2.2a1.027,1.027,0,1,0,0,2.055h2.2A1.027,1.027,0,0,0,36.257,209.894Z" transform="translate(0 -194.561)" fill="#48a2ea"/>
    <path id="Path_1379" data-name="Path 1379" d="M78.622,103.093a5.784,5.784,0,0,1,.6-2.541l3.223-6.437a5.566,5.566,0,0,0,.58-2.465,3.189,3.189,0,0,0-.892-2.224l-.86-.86a.685.685,0,0,0-1.1.178l-5.846,11.693a1.026,1.026,0,0,0-.108.459v7.828l-2.5,2.5a1.028,1.028,0,0,0,0,1.453l4.4,4.4a1.027,1.027,0,0,0,1.453,0l4.14-4.141a4.437,4.437,0,0,0,1.31-3.163v-8.661a.292.292,0,0,0-.292-.292,2.055,2.055,0,0,0-2.055,2.055v3.574a1.027,1.027,0,0,1-1.077,1.026,1.046,1.046,0,0,1-.978-1.055v-3.329Z" transform="translate(-36.717 -82.312)" fill="#48a2ea"/>
    <path id="Path_1380" data-name="Path 1380" d="M279.672,108.724V100.9a1.026,1.026,0,0,0-.109-.459l-5.846-11.693a.685.685,0,0,0-1.1-.178l-.86.86a3.191,3.191,0,0,0-.892,2.224,5.566,5.566,0,0,0,.58,2.465l3.223,6.437a5.786,5.786,0,0,1,.6,2.541v3.329a1.047,1.047,0,0,1-.978,1.056,1.027,1.027,0,0,1-1.077-1.026v-3.574a2.055,2.055,0,0,0-2.055-2.055.292.292,0,0,0-.292.292v8.661a4.437,4.437,0,0,0,1.311,3.163l4.141,4.141a1.027,1.027,0,0,0,1.453,0l4.4-4.4a1.027,1.027,0,0,0,0-1.453Z" transform="translate(-222.506 -82.312)" fill="#48a2ea"/>
  </g>
</svg>
