<svg xmlns="http://www.w3.org/2000/svg" width="37.518" height="37.518" viewBox="0 0 37.518 37.518">
  <g id="Group_471" data-name="Group 471" transform="translate(-1162.586 -7260.477)">
    <path id="Path_230" data-name="Path 230" d="M18.759,37.518A18.759,18.759,0,1,0,0,18.759,18.743,18.743,0,0,0,18.759,37.518" transform="translate(1162.586 7260.477)" fill="#48a2ea"/>
    <path id="Path_231" data-name="Path 231" d="M12.9,14.679h1.986V12.8a4.439,4.439,0,0,1,.662-2.869A3.168,3.168,0,0,1,18.528,8.5a13.741,13.741,0,0,1,3.531.331L21.617,11.7a6.454,6.454,0,0,0-1.545-.221c-.772,0-1.434.221-1.434.993v2.207h3.09l-.221,2.759H18.528v9.71H14.886v-9.71H12.9Z" transform="translate(1163.92 7260.356)" fill="#fff"/>
  </g>
</svg>
