<svg xmlns="http://www.w3.org/2000/svg" width="37.517" height="37.518" viewBox="0 0 37.517 37.518">
  <g id="Group_473" data-name="Group 473" transform="translate(-1213.464 -7260.482)">
    <path id="Path_234" data-name="Path 234" d="M18.759,37.518A18.759,18.759,0,1,0,0,18.759,18.743,18.743,0,0,0,18.759,37.518" transform="translate(1213.464 7260.482)" fill="#48a2ea"/>
    <path id="Path_235" data-name="Path 235" d="M23.617,8.5H12.141A3.674,3.674,0,0,0,8.5,12.141V23.728a3.674,3.674,0,0,0,3.641,3.641H23.617a3.674,3.674,0,0,0,3.641-3.641V12.141A3.674,3.674,0,0,0,23.617,8.5Zm1.1,2.207h.441v3.2h-3.2v-3.2ZM15.231,16a3.1,3.1,0,0,1,2.648-1.434,3.289,3.289,0,0,1,2.648,1.324,3,3,0,0,1,.662,1.876,3.31,3.31,0,1,1-6.621,0A2.935,2.935,0,0,1,15.231,16Zm10.262,7.614a1.743,1.743,0,0,1-1.766,1.766H12.141a1.743,1.743,0,0,1-1.766-1.766V15.893h2.759a5.187,5.187,0,1,0,9.71,0H25.6v7.724Z" transform="translate(1214.344 7260.361)" fill="#fff"/>
  </g>
</svg>
